…
We will first create a nested Gapminder dataframe to be able to run more complicated analysis in each group of interest (country and continent) than would be possible with the `group_by()` function.

``` r
nested_gapminder <- gapminder %>%
  group_by(continent, country) %>%
  nest()
```

Let's take a look at this new dataframe

``` r
nested_gapminder
```

    ## # A tibble: 142 x 3
    ##    continent country     data             
    ##    <fct>     <fct>       <list>           
    ##  1 Asia      Afghanistan <tibble [12 x 4]>
    ##  2 Europe    Albania     <tibble [12 x 4]>
    ##  3 Africa    Algeria     <tibble [12 x 4]>
    ##  4 Africa    Angola      <tibble [12 x 4]>
    ##  5 Americas  Argentina   <tibble [12 x 4]>
    ##  6 Oceania   Australia   <tibble [12 x 4]>
    ##  7 Europe    Austria     <tibble [12 x 4]>
    ##  8 Asia      Bahrain     <tibble [12 x 4]>
    ##  9 Asia      Bangladesh  <tibble [12 x 4]>
    ## 10 Europe    Belgium     <tibble [12 x 4]>
    ## # ... with 132 more rows
…
